<?xml version='1.0' encoding='UTF-8'?>
<!DOCTYPE svg PUBLIC '-//W3C//DTD SVG 1.1//EN'
  'http://www.w3.org/Graphics/SVG/1.1/DTD/svg11.dtd'>
<svg xmlns='http://www.w3.org/2000/svg'
 version='1.1' baseProfile='full'
 viewBox='0 0 804 484'>
 <desc>XTerm(353) Screen Dump</desc>
 <g font-size='16,00' font-family='monospace, monospace'>
  <rect x='0' y='0' width='804' height='484' fill='rgb(0,00%, 0,00%, 0,00%)'/>
  <rect x='0' y='0' width='804' height='484' fill='rgb(0,00%, 0,00%, 0,00%)'/>
  <!-- Row 0 -->
  <rect x='2' y='2' height='20' width='800' fill='rgb(0,00%, 0,00%, 0,00%)'/>
  <g fill='rgb(89,84%, 89,84%, 89,84%)'>
  </g>
  <!-- Row 1 -->
  <rect x='2' y='22' height='20' width='20' fill='rgb(0,00%, 0,00%, 0,00%)'/>
  <g fill='rgb(89,84%, 89,84%, 89,84%)'>
  </g>
  <rect x='22' y='22' height='20' width='30' fill='rgb(0,00%, 0,00%, 0,00%)'/>
  <g fill='rgb(0,00%, 80,41%, 80,41%)'>
   <text x='22' y='37'>1</text>
  </g>
  <rect x='52' y='22' height='20' width='10' fill='rgb(0,00%, 0,00%, 0,00%)'/>
  <g font-weight='bold' fill='rgb(89,84%, 89,84%, 89,84%)'>
   <text x='52' y='37'>[</text>
  </g>
  <rect x='62' y='22' height='20' width='10' fill='rgb(0,00%, 0,00%, 0,00%)'/>
  <g fill='rgb(0,00%, 80,41%, 0,00%)'>
   <text x='62' y='37'>|</text>
  </g>
  <rect x='72' y='22' height='20' width='10' fill='rgb(0,00%, 0,00%, 0,00%)'/>
  <g fill='rgb(80,41%, 0,00%, 0,00%)'>
   <text x='72' y='37'>|</text>
  </g>
  <rect x='82' y='22' height='20' width='90' fill='rgb(0,00%, 0,00%, 0,00%)'/>
  <g font-weight='bold' fill='rgb(49,78%, 49,78%, 49,78%)'>
   <text x='122' y='37'>1</text>
   <text x='132' y='37'>0</text>
   <text x='142' y='37'>.</text>
   <text x='152' y='37'>6</text>
   <text x='162' y='37'>%</text>
  </g>
  <rect x='172' y='22' height='20' width='10' fill='rgb(0,00%, 0,00%, 0,00%)'/>
  <g font-weight='bold' fill='rgb(89,84%, 89,84%, 89,84%)'>
   <text x='172' y='37'>]</text>
  </g>
  <rect x='182' y='22' height='20' width='30' fill='rgb(0,00%, 0,00%, 0,00%)'/>
  <g fill='rgb(89,84%, 89,84%, 89,84%)'>
  </g>
  <rect x='212' y='22' height='20' width='30' fill='rgb(0,00%, 0,00%, 0,00%)'/>
  <g fill='rgb(0,00%, 80,41%, 80,41%)'>
   <text x='212' y='37'>5</text>
  </g>
  <rect x='242' y='22' height='20' width='10' fill='rgb(0,00%, 0,00%, 0,00%)'/>
  <g font-weight='bold' fill='rgb(89,84%, 89,84%, 89,84%)'>
   <text x='242' y='37'>[</text>
  </g>
  <rect x='252' y='22' height='20' width='10' fill='rgb(0,00%, 0,00%, 0,00%)'/>
  <g fill='rgb(0,00%, 80,41%, 0,00%)'>
   <text x='252' y='37'>|</text>
  </g>
  <rect x='262' y='22' height='20' width='10' fill='rgb(0,00%, 0,00%, 0,00%)'/>
  <g fill='rgb(80,41%, 0,00%, 0,00%)'>
   <text x='262' y='37'>|</text>
  </g>
  <rect x='272' y='22' height='20' width='90' fill='rgb(0,00%, 0,00%, 0,00%)'/>
  <g font-weight='bold' fill='rgb(49,78%, 49,78%, 49,78%)'>
   <text x='322' y='37'>5</text>
   <text x='332' y='37'>.</text>
   <text x='342' y='37'>2</text>
   <text x='352' y='37'>%</text>
  </g>
  <rect x='362' y='22' height='20' width='10' fill='rgb(0,00%, 0,00%, 0,00%)'/>
  <g font-weight='bold' fill='rgb(89,84%, 89,84%, 89,84%)'>
   <text x='362' y='37'>]</text>
  </g>
  <rect x='372' y='22' height='20' width='30' fill='rgb(0,00%, 0,00%, 0,00%)'/>
  <g fill='rgb(89,84%, 89,84%, 89,84%)'>
  </g>
  <rect x='402' y='22' height='20' width='30' fill='rgb(0,00%, 0,00%, 0,00%)'/>
  <g fill='rgb(0,00%, 80,41%, 80,41%)'>
   <text x='402' y='37'>9</text>
  </g>
  <rect x='432' y='22' height='20' width='10' fill='rgb(0,00%, 0,00%, 0,00%)'/>
  <g font-weight='bold' fill='rgb(89,84%, 89,84%, 89,84%)'>
   <text x='432' y='37'>[</text>
  </g>
  <rect x='442' y='22' height='20' width='10' fill='rgb(0,00%, 0,00%, 0,00%)'/>
  <g fill='rgb(0,00%, 80,41%, 0,00%)'>
   <text x='442' y='37'>|</text>
  </g>
  <rect x='452' y='22' height='20' width='10' fill='rgb(0,00%, 0,00%, 0,00%)'/>
  <g fill='rgb(80,41%, 0,00%, 0,00%)'>
   <text x='452' y='37'>|</text>
  </g>
  <rect x='462' y='22' height='20' width='90' fill='rgb(0,00%, 0,00%, 0,00%)'/>
  <g font-weight='bold' fill='rgb(49,78%, 49,78%, 49,78%)'>
   <text x='512' y='37'>3</text>
   <text x='522' y='37'>.</text>
   <text x='532' y='37'>9</text>
   <text x='542' y='37'>%</text>
  </g>
  <rect x='552' y='22' height='20' width='10' fill='rgb(0,00%, 0,00%, 0,00%)'/>
  <g font-weight='bold' fill='rgb(89,84%, 89,84%, 89,84%)'>
   <text x='552' y='37'>]</text>
  </g>
  <rect x='562' y='22' height='20' width='30' fill='rgb(0,00%, 0,00%, 0,00%)'/>
  <g fill='rgb(89,84%, 89,84%, 89,84%)'>
  </g>
  <rect x='592' y='22' height='20' width='30' fill='rgb(0,00%, 0,00%, 0,00%)'/>
  <g fill='rgb(0,00%, 80,41%, 80,41%)'>
   <text x='592' y='37'>1</text>
   <text x='602' y='37'>3</text>
  </g>
  <rect x='622' y='22' height='20' width='10' fill='rgb(0,00%, 0,00%, 0,00%)'/>
  <g font-weight='bold' fill='rgb(89,84%, 89,84%, 89,84%)'>
   <text x='622' y='37'>[</text>
  </g>
  <rect x='632' y='22' height='20' width='10' fill='rgb(0,00%, 0,00%, 0,00%)'/>
  <g fill='rgb(0,00%, 80,41%, 0,00%)'>
   <text x='632' y='37'>|</text>
  </g>
  <rect x='642' y='22' height='20' width='100' fill='rgb(0,00%, 0,00%, 0,00%)'/>
  <g font-weight='bold' fill='rgb(49,78%, 49,78%, 49,78%)'>
   <text x='702' y='37'>0</text>
   <text x='712' y='37'>.</text>
   <text x='722' y='37'>6</text>
   <text x='732' y='37'>%</text>
  </g>
  <rect x='742' y='22' height='20' width='10' fill='rgb(0,00%, 0,00%, 0,00%)'/>
  <g font-weight='bold' fill='rgb(89,84%, 89,84%, 89,84%)'>
   <text x='742' y='37'>]</text>
  </g>
  <rect x='752' y='22' height='20' width='50' fill='rgb(0,00%, 0,00%, 0,00%)'/>
  <g fill='rgb(89,84%, 89,84%, 89,84%)'>
  </g>
  <!-- Row 2 -->
  <rect x='2' y='42' height='20' width='20' fill='rgb(0,00%, 0,00%, 0,00%)'/>
  <g fill='rgb(89,84%, 89,84%, 89,84%)'>
  </g>
  <rect x='22' y='42' height='20' width='30' fill='rgb(0,00%, 0,00%, 0,00%)'/>
  <g fill='rgb(0,00%, 80,41%, 80,41%)'>
   <text x='22' y='57'>2</text>
  </g>
  <rect x='52' y='42' height='20' width='10' fill='rgb(0,00%, 0,00%, 0,00%)'/>
  <g font-weight='bold' fill='rgb(89,84%, 89,84%, 89,84%)'>
   <text x='52' y='57'>[</text>
  </g>
  <rect x='62' y='42' height='20' width='10' fill='rgb(0,00%, 0,00%, 0,00%)'/>
  <g fill='rgb(0,00%, 80,41%, 0,00%)'>
   <text x='62' y='57'>|</text>
  </g>
  <rect x='72' y='42' height='20' width='10' fill='rgb(0,00%, 0,00%, 0,00%)'/>
  <g fill='rgb(80,41%, 0,00%, 0,00%)'>
   <text x='72' y='57'>|</text>
  </g>
  <rect x='82' y='42' height='20' width='90' fill='rgb(0,00%, 0,00%, 0,00%)'/>
  <g font-weight='bold' fill='rgb(49,78%, 49,78%, 49,78%)'>
   <text x='132' y='57'>5</text>
   <text x='142' y='57'>.</text>
   <text x='152' y='57'>1</text>
   <text x='162' y='57'>%</text>
  </g>
  <rect x='172' y='42' height='20' width='10' fill='rgb(0,00%, 0,00%, 0,00%)'/>
  <g font-weight='bold' fill='rgb(89,84%, 89,84%, 89,84%)'>
   <text x='172' y='57'>]</text>
  </g>
  <rect x='182' y='42' height='20' width='30' fill='rgb(0,00%, 0,00%, 0,00%)'/>
  <g fill='rgb(89,84%, 89,84%, 89,84%)'>
  </g>
  <rect x='212' y='42' height='20' width='30' fill='rgb(0,00%, 0,00%, 0,00%)'/>
  <g fill='rgb(0,00%, 80,41%, 80,41%)'>
   <text x='212' y='57'>6</text>
  </g>
  <rect x='242' y='42' height='20' width='10' fill='rgb(0,00%, 0,00%, 0,00%)'/>
  <g font-weight='bold' fill='rgb(89,84%, 89,84%, 89,84%)'>
   <text x='242' y='57'>[</text>
  </g>
  <rect x='252' y='42' height='20' width='10' fill='rgb(0,00%, 0,00%, 0,00%)'/>
  <g fill='rgb(0,00%, 80,41%, 0,00%)'>
   <text x='252' y='57'>|</text>
  </g>
  <rect x='262' y='42' height='20' width='10' fill='rgb(0,00%, 0,00%, 0,00%)'/>
  <g fill='rgb(80,41%, 0,00%, 0,00%)'>
   <text x='262' y='57'>|</text>
  </g>
  <rect x='272' y='42' height='20' width='90' fill='rgb(0,00%, 0,00%, 0,00%)'/>
  <g font-weight='bold' fill='rgb(49,78%, 49,78%, 49,78%)'>
   <text x='322' y='57'>5</text>
   <text x='332' y='57'>.</text>
   <text x='342' y='57'>2</text>
   <text x='352' y='57'>%</text>
  </g>
  <rect x='362' y='42' height='20' width='10' fill='rgb(0,00%, 0,00%, 0,00%)'/>
  <g font-weight='bold' fill='rgb(89,84%, 89,84%, 89,84%)'>
   <text x='362' y='57'>]</text>
  </g>
  <rect x='372' y='42' height='20' width='30' fill='rgb(0,00%, 0,00%, 0,00%)'/>
  <g fill='rgb(89,84%, 89,84%, 89,84%)'>
  </g>
  <rect x='402' y='42' height='20' width='30' fill='rgb(0,00%, 0,00%, 0,00%)'/>
  <g fill='rgb(0,00%, 80,41%, 80,41%)'>
   <text x='402' y='57'>1</text>
   <text x='412' y='57'>0</text>
  </g>
  <rect x='432' y='42' height='20' width='10' fill='rgb(0,00%, 0,00%, 0,00%)'/>
  <g font-weight='bold' fill='rgb(89,84%, 89,84%, 89,84%)'>
   <text x='432' y='57'>[</text>
  </g>
  <rect x='442' y='42' height='20' width='10' fill='rgb(0,00%, 0,00%, 0,00%)'/>
  <g fill='rgb(0,00%, 80,41%, 0,00%)'>
   <text x='442' y='57'>|</text>
  </g>
  <rect x='452' y='42' height='20' width='10' fill='rgb(0,00%, 0,00%, 0,00%)'/>
  <g fill='rgb(80,41%, 0,00%, 0,00%)'>
   <text x='452' y='57'>|</text>
  </g>
  <rect x='462' y='42' height='20' width='90' fill='rgb(0,00%, 0,00%, 0,00%)'/>
  <g font-weight='bold' fill='rgb(49,78%, 49,78%, 49,78%)'>
   <text x='512' y='57'>2</text>
   <text x='522' y='57'>.</text>
   <text x='532' y='57'>0</text>
   <text x='542' y='57'>%</text>
  </g>
  <rect x='552' y='42' height='20' width='10' fill='rgb(0,00%, 0,00%, 0,00%)'/>
  <g font-weight='bold' fill='rgb(89,84%, 89,84%, 89,84%)'>
   <text x='552' y='57'>]</text>
  </g>
  <rect x='562' y='42' height='20' width='30' fill='rgb(0,00%, 0,00%, 0,00%)'/>
  <g fill='rgb(89,84%, 89,84%, 89,84%)'>
  </g>
  <rect x='592' y='42' height='20' width='30' fill='rgb(0,00%, 0,00%, 0,00%)'/>
  <g fill='rgb(0,00%, 80,41%, 80,41%)'>
   <text x='592' y='57'>1</text>
   <text x='602' y='57'>4</text>
  </g>
  <rect x='622' y='42' height='20' width='10' fill='rgb(0,00%, 0,00%, 0,00%)'/>
  <g font-weight='bold' fill='rgb(89,84%, 89,84%, 89,84%)'>
   <text x='622' y='57'>[</text>
  </g>
  <rect x='632' y='42' height='20' width='110' fill='rgb(0,00%, 0,00%, 0,00%)'/>
  <g font-weight='bold' fill='rgb(49,78%, 49,78%, 49,78%)'>
   <text x='702' y='57'>0</text>
   <text x='712' y='57'>.</text>
   <text x='722' y='57'>0</text>
   <text x='732' y='57'>%</text>
  </g>
  <rect x='742' y='42' height='20' width='10' fill='rgb(0,00%, 0,00%, 0,00%)'/>
  <g font-weight='bold' fill='rgb(89,84%, 89,84%, 89,84%)'>
   <text x='742' y='57'>]</text>
  </g>
  <rect x='752' y='42' height='20' width='50' fill='rgb(0,00%, 0,00%, 0,00%)'/>
  <g fill='rgb(89,84%, 89,84%, 89,84%)'>
  </g>
  <!-- Row 3 -->
  <rect x='2' y='62' height='20' width='20' fill='rgb(0,00%, 0,00%, 0,00%)'/>
  <g fill='rgb(89,84%, 89,84%, 89,84%)'>
  </g>
  <rect x='22' y='62' height='20' width='30' fill='rgb(0,00%, 0,00%, 0,00%)'/>
  <g fill='rgb(0,00%, 80,41%, 80,41%)'>
   <text x='22' y='77'>3</text>
  </g>
  <rect x='52' y='62' height='20' width='10' fill='rgb(0,00%, 0,00%, 0,00%)'/>
  <g font-weight='bold' fill='rgb(89,84%, 89,84%, 89,84%)'>
   <text x='52' y='77'>[</text>
  </g>
  <rect x='62' y='62' height='20' width='10' fill='rgb(0,00%, 0,00%, 0,00%)'/>
  <g fill='rgb(0,00%, 80,41%, 0,00%)'>
   <text x='62' y='77'>|</text>
  </g>
  <rect x='72' y='62' height='20' width='10' fill='rgb(0,00%, 0,00%, 0,00%)'/>
  <g fill='rgb(80,41%, 0,00%, 0,00%)'>
   <text x='72' y='77'>|</text>
  </g>
  <rect x='82' y='62' height='20' width='90' fill='rgb(0,00%, 0,00%, 0,00%)'/>
  <g font-weight='bold' fill='rgb(49,78%, 49,78%, 49,78%)'>
   <text x='132' y='77'>6</text>
   <text x='142' y='77'>.</text>
   <text x='152' y='77'>5</text>
   <text x='162' y='77'>%</text>
  </g>
  <rect x='172' y='62' height='20' width='10' fill='rgb(0,00%, 0,00%, 0,00%)'/>
  <g font-weight='bold' fill='rgb(89,84%, 89,84%, 89,84%)'>
   <text x='172' y='77'>]</text>
  </g>
  <rect x='182' y='62' height='20' width='30' fill='rgb(0,00%, 0,00%, 0,00%)'/>
  <g fill='rgb(89,84%, 89,84%, 89,84%)'>
  </g>
  <rect x='212' y='62' height='20' width='30' fill='rgb(0,00%, 0,00%, 0,00%)'/>
  <g fill='rgb(0,00%, 80,41%, 80,41%)'>
   <text x='212' y='77'>7</text>
  </g>
  <rect x='242' y='62' height='20' width='10' fill='rgb(0,00%, 0,00%, 0,00%)'/>
  <g font-weight='bold' fill='rgb(89,84%, 89,84%, 89,84%)'>
   <text x='242' y='77'>[</text>
  </g>
  <rect x='252' y='62' height='20' width='10' fill='rgb(0,00%, 0,00%, 0,00%)'/>
  <g fill='rgb(0,00%, 80,41%, 0,00%)'>
   <text x='252' y='77'>|</text>
  </g>
  <rect x='262' y='62' height='20' width='10' fill='rgb(0,00%, 0,00%, 0,00%)'/>
  <g fill='rgb(80,41%, 0,00%, 0,00%)'>
   <text x='262' y='77'>|</text>
  </g>
  <rect x='272' y='62' height='20' width='90' fill='rgb(0,00%, 0,00%, 0,00%)'/>
  <g font-weight='bold' fill='rgb(49,78%, 49,78%, 49,78%)'>
   <text x='322' y='77'>6</text>
   <text x='332' y='77'>.</text>
   <text x='342' y='77'>0</text>
   <text x='352' y='77'>%</text>
  </g>
  <rect x='362' y='62' height='20' width='10' fill='rgb(0,00%, 0,00%, 0,00%)'/>
  <g font-weight='bold' fill='rgb(89,84%, 89,84%, 89,84%)'>
   <text x='362' y='77'>]</text>
  </g>
  <rect x='372' y='62' height='20' width='30' fill='rgb(0,00%, 0,00%, 0,00%)'/>
  <g fill='rgb(89,84%, 89,84%, 89,84%)'>
  </g>
  <rect x='402' y='62' height='20' width='30' fill='rgb(0,00%, 0,00%, 0,00%)'/>
  <g fill='rgb(0,00%, 80,41%, 80,41%)'>
   <text x='402' y='77'>1</text>
   <text x='412' y='77'>1</text>
  </g>
  <rect x='432' y='62' height='20' width='10' fill='rgb(0,00%, 0,00%, 0,00%)'/>
  <g font-weight='bold' fill='rgb(89,84%, 89,84%, 89,84%)'>
   <text x='432' y='77'>[</text>
  </g>
  <rect x='442' y='62' height='20' width='10' fill='rgb(0,00%, 0,00%, 0,00%)'/>
  <g fill='rgb(0,00%, 80,41%, 0,00%)'>
   <text x='442' y='77'>|</text>
  </g>
  <rect x='452' y='62' height='20' width='10' fill='rgb(0,00%, 0,00%, 0,00%)'/>
  <g fill='rgb(80,41%, 0,00%, 0,00%)'>
   <text x='452' y='77'>|</text>
  </g>
  <rect x='462' y='62' height='20' width='90' fill='rgb(0,00%, 0,00%, 0,00%)'/>
  <g font-weight='bold' fill='rgb(49,78%, 49,78%, 49,78%)'>
   <text x='512' y='77'>1</text>
   <text x='522' y='77'>.</text>
   <text x='532' y='77'>3</text>
   <text x='542' y='77'>%</text>
  </g>
  <rect x='552' y='62' height='20' width='10' fill='rgb(0,00%, 0,00%, 0,00%)'/>
  <g font-weight='bold' fill='rgb(89,84%, 89,84%, 89,84%)'>
   <text x='552' y='77'>]</text>
  </g>
  <rect x='562' y='62' height='20' width='30' fill='rgb(0,00%, 0,00%, 0,00%)'/>
  <g fill='rgb(89,84%, 89,84%, 89,84%)'>
  </g>
  <rect x='592' y='62' height='20' width='30' fill='rgb(0,00%, 0,00%, 0,00%)'/>
  <g fill='rgb(0,00%, 80,41%, 80,41%)'>
   <text x='592' y='77'>1</text>
   <text x='602' y='77'>5</text>
  </g>
  <rect x='622' y='62' height='20' width='10' fill='rgb(0,00%, 0,00%, 0,00%)'/>
  <g font-weight='bold' fill='rgb(89,84%, 89,84%, 89,84%)'>
   <text x='622' y='77'>[</text>
  </g>
  <rect x='632' y='62' height='20' width='10' fill='rgb(0,00%, 0,00%, 0,00%)'/>
  <g fill='rgb(0,00%, 80,41%, 0,00%)'>
   <text x='632' y='77'>|</text>
  </g>
  <rect x='642' y='62' height='20' width='100' fill='rgb(0,00%, 0,00%, 0,00%)'/>
  <g font-weight='bold' fill='rgb(49,78%, 49,78%, 49,78%)'>
   <text x='702' y='77'>1</text>
   <text x='712' y='77'>.</text>
   <text x='722' y='77'>9</text>
   <text x='732' y='77'>%</text>
  </g>
  <rect x='742' y='62' height='20' width='10' fill='rgb(0,00%, 0,00%, 0,00%)'/>
  <g font-weight='bold' fill='rgb(89,84%, 89,84%, 89,84%)'>
   <text x='742' y='77'>]</text>
  </g>
  <rect x='752' y='62' height='20' width='50' fill='rgb(0,00%, 0,00%, 0,00%)'/>
  <g fill='rgb(89,84%, 89,84%, 89,84%)'>
  </g>
  <!-- Row 4 -->
  <rect x='2' y='82' height='20' width='20' fill='rgb(0,00%, 0,00%, 0,00%)'/>
  <g fill='rgb(89,84%, 89,84%, 89,84%)'>
  </g>
  <rect x='22' y='82' height='20' width='30' fill='rgb(0,00%, 0,00%, 0,00%)'/>
  <g fill='rgb(0,00%, 80,41%, 80,41%)'>
   <text x='22' y='97'>4</text>
  </g>
  <rect x='52' y='82' height='20' width='10' fill='rgb(0,00%, 0,00%, 0,00%)'/>
  <g font-weight='bold' fill='rgb(89,84%, 89,84%, 89,84%)'>
   <text x='52' y='97'>[</text>
  </g>
  <rect x='62' y='82' height='20' width='10' fill='rgb(0,00%, 0,00%, 0,00%)'/>
  <g fill='rgb(0,00%, 80,41%, 0,00%)'>
   <text x='62' y='97'>|</text>
  </g>
  <rect x='72' y='82' height='20' width='10' fill='rgb(0,00%, 0,00%, 0,00%)'/>
  <g fill='rgb(80,41%, 0,00%, 0,00%)'>
   <text x='72' y='97'>|</text>
  </g>
  <rect x='82' y='82' height='20' width='90' fill='rgb(0,00%, 0,00%, 0,00%)'/>
  <g font-weight='bold' fill='rgb(49,78%, 49,78%, 49,78%)'>
   <text x='132' y='97'>4</text>
   <text x='142' y='97'>.</text>
   <text x='152' y='97'>6</text>
   <text x='162' y='97'>%</text>
  </g>
  <rect x='172' y='82' height='20' width='10' fill='rgb(0,00%, 0,00%, 0,00%)'/>
  <g font-weight='bold' fill='rgb(89,84%, 89,84%, 89,84%)'>
   <text x='172' y='97'>]</text>
  </g>
  <rect x='182' y='82' height='20' width='30' fill='rgb(0,00%, 0,00%, 0,00%)'/>
  <g fill='rgb(89,84%, 89,84%, 89,84%)'>
  </g>
  <rect x='212' y='82' height='20' width='30' fill='rgb(0,00%, 0,00%, 0,00%)'/>
  <g fill='rgb(0,00%, 80,41%, 80,41%)'>
   <text x='212' y='97'>8</text>
  </g>
  <rect x='242' y='82' height='20' width='10' fill='rgb(0,00%, 0,00%, 0,00%)'/>
  <g font-weight='bold' fill='rgb(89,84%, 89,84%, 89,84%)'>
   <text x='242' y='97'>[</text>
  </g>
  <rect x='252' y='82' height='20' width='10' fill='rgb(0,00%, 0,00%, 0,00%)'/>
  <g fill='rgb(0,00%, 80,41%, 0,00%)'>
   <text x='252' y='97'>|</text>
  </g>
  <rect x='262' y='82' height='20' width='10' fill='rgb(0,00%, 0,00%, 0,00%)'/>
  <g fill='rgb(80,41%, 0,00%, 0,00%)'>
   <text x='262' y='97'>|</text>
  </g>
  <rect x='272' y='82' height='20' width='90' fill='rgb(0,00%, 0,00%, 0,00%)'/>
  <g font-weight='bold' fill='rgb(49,78%, 49,78%, 49,78%)'>
   <text x='322' y='97'>9</text>
   <text x='332' y='97'>.</text>
   <text x='342' y='97'>8</text>
   <text x='352' y='97'>%</text>
  </g>
  <rect x='362' y='82' height='20' width='10' fill='rgb(0,00%, 0,00%, 0,00%)'/>
  <g font-weight='bold' fill='rgb(89,84%, 89,84%, 89,84%)'>
   <text x='362' y='97'>]</text>
  </g>
  <rect x='372' y='82' height='20' width='30' fill='rgb(0,00%, 0,00%, 0,00%)'/>
  <g fill='rgb(89,84%, 89,84%, 89,84%)'>
  </g>
  <rect x='402' y='82' height='20' width='30' fill='rgb(0,00%, 0,00%, 0,00%)'/>
  <g fill='rgb(0,00%, 80,41%, 80,41%)'>
   <text x='402' y='97'>1</text>
   <text x='412' y='97'>2</text>
  </g>
  <rect x='432' y='82' height='20' width='10' fill='rgb(0,00%, 0,00%, 0,00%)'/>
  <g font-weight='bold' fill='rgb(89,84%, 89,84%, 89,84%)'>
   <text x='432' y='97'>[</text>
  </g>
  <rect x='442' y='82' height='20' width='10' fill='rgb(0,00%, 0,00%, 0,00%)'/>
  <g fill='rgb(0,00%, 80,41%, 0,00%)'>
   <text x='442' y='97'>|</text>
  </g>
  <rect x='452' y='82' height='20' width='100' fill='rgb(0,00%, 0,00%, 0,00%)'/>
  <g font-weight='bold' fill='rgb(49,78%, 49,78%, 49,78%)'>
   <text x='512' y='97'>0</text>
   <text x='522' y='97'>.</text>
   <text x='532' y='97'>7</text>
   <text x='542' y='97'>%</text>
  </g>
  <rect x='552' y='82' height='20' width='10' fill='rgb(0,00%, 0,00%, 0,00%)'/>
  <g font-weight='bold' fill='rgb(89,84%, 89,84%, 89,84%)'>
   <text x='552' y='97'>]</text>
  </g>
  <rect x='562' y='82' height='20' width='30' fill='rgb(0,00%, 0,00%, 0,00%)'/>
  <g fill='rgb(89,84%, 89,84%, 89,84%)'>
  </g>
  <rect x='592' y='82' height='20' width='30' fill='rgb(0,00%, 0,00%, 0,00%)'/>
  <g fill='rgb(0,00%, 80,41%, 80,41%)'>
   <text x='592' y='97'>1</text>
   <text x='602' y='97'>6</text>
  </g>
  <rect x='622' y='82' height='20' width='10' fill='rgb(0,00%, 0,00%, 0,00%)'/>
  <g font-weight='bold' fill='rgb(89,84%, 89,84%, 89,84%)'>
   <text x='622' y='97'>[</text>
  </g>
  <rect x='632' y='82' height='20' width='110' fill='rgb(0,00%, 0,00%, 0,00%)'/>
  <g font-weight='bold' fill='rgb(49,78%, 49,78%, 49,78%)'>
   <text x='702' y='97'>0</text>
   <text x='712' y='97'>.</text>
   <text x='722' y='97'>0</text>
   <text x='732' y='97'>%</text>
  </g>
  <rect x='742' y='82' height='20' width='10' fill='rgb(0,00%, 0,00%, 0,00%)'/>
  <g font-weight='bold' fill='rgb(89,84%, 89,84%, 89,84%)'>
   <text x='742' y='97'>]</text>
  </g>
  <rect x='752' y='82' height='20' width='50' fill='rgb(0,00%, 0,00%, 0,00%)'/>
  <g fill='rgb(89,84%, 89,84%, 89,84%)'>
  </g>
  <!-- Row 5 -->
  <rect x='2' y='102' height='20' width='20' fill='rgb(0,00%, 0,00%, 0,00%)'/>
  <g fill='rgb(89,84%, 89,84%, 89,84%)'>
  </g>
  <rect x='22' y='102' height='20' width='30' fill='rgb(0,00%, 0,00%, 0,00%)'/>
  <g fill='rgb(0,00%, 80,41%, 80,41%)'>
   <text x='22' y='117'>M</text>
   <text x='32' y='117'>e</text>
   <text x='42' y='117'>m</text>
  </g>
  <rect x='52' y='102' height='20' width='10' fill='rgb(0,00%, 0,00%, 0,00%)'/>
  <g font-weight='bold' fill='rgb(89,84%, 89,84%, 89,84%)'>
   <text x='52' y='117'>[</text>
  </g>
  <rect x='62' y='102' height='20' width='160' fill='rgb(0,00%, 0,00%, 0,00%)'/>
  <g fill='rgb(0,00%, 80,41%, 0,00%)'>
   <text x='62' y='117'>|</text>
   <text x='72' y='117'>|</text>
   <text x='82' y='117'>|</text>
   <text x='92' y='117'>|</text>
   <text x='102' y='117'>|</text>
   <text x='112' y='117'>|</text>
   <text x='122' y='117'>|</text>
   <text x='132' y='117'>|</text>
   <text x='142' y='117'>|</text>
   <text x='152' y='117'>|</text>
   <text x='162' y='117'>|</text>
   <text x='172' y='117'>|</text>
   <text x='182' y='117'>|</text>
   <text x='192' y='117'>|</text>
   <text x='202' y='117'>|</text>
   <text x='212' y='117'>|</text>
  </g>
  <rect x='222' y='102' height='20' width='10' fill='rgb(0,00%, 0,00%, 0,00%)'/>
  <g fill='rgb(0,00%, 0,00%, 93,35%)'>
   <text x='222' y='117'>|</text>
  </g>
  <rect x='232' y='102' height='20' width='130' fill='rgb(0,00%, 0,00%, 0,00%)'/>
  <g fill='rgb(80,41%, 80,41%, 0,00%)'>
   <text x='232' y='117'>|</text>
   <text x='242' y='117'>|</text>
   <text x='252' y='117'>1</text>
   <text x='262' y='117'>6</text>
   <text x='272' y='117'>.</text>
   <text x='282' y='117'>3</text>
   <text x='292' y='117'>G</text>
   <text x='302' y='117'>/</text>
   <text x='312' y='117'>3</text>
   <text x='322' y='117'>1</text>
   <text x='332' y='117'>.</text>
   <text x='342' y='117'>1</text>
   <text x='352' y='117'>G</text>
  </g>
  <rect x='362' y='102' height='20' width='10' fill='rgb(0,00%, 0,00%, 0,00%)'/>
  <g font-weight='bold' fill='rgb(89,84%, 89,84%, 89,84%)'>
   <text x='362' y='117'>]</text>
  </g>
  <rect x='372' y='102' height='20' width='30' fill='rgb(0,00%, 0,00%, 0,00%)'/>
  <g fill='rgb(89,84%, 89,84%, 89,84%)'>
  </g>
  <rect x='402' y='102' height='20' width='70' fill='rgb(0,00%, 0,00%, 0,00%)'/>
  <g fill='rgb(0,00%, 80,41%, 80,41%)'>
   <text x='402' y='117'>T</text>
   <text x='412' y='117'>a</text>
   <text x='422' y='117'>s</text>
   <text x='432' y='117'>k</text>
   <text x='442' y='117'>s</text>
   <text x='452' y='117'>:</text>
  </g>
  <rect x='472' y='102' height='20' width='30' fill='rgb(0,00%, 0,00%, 0,00%)'/>
  <g font-weight='bold' fill='rgb(0,00%, 100,00%, 100,00%)'>
   <text x='472' y='117'>2</text>
   <text x='482' y='117'>4</text>
   <text x='492' y='117'>3</text>
  </g>
  <rect x='502' y='102' height='20' width='20' fill='rgb(0,00%, 0,00%, 0,00%)'/>
  <g fill='rgb(0,00%, 80,41%, 80,41%)'>
   <text x='502' y='117'>,</text>
  </g>
  <rect x='522' y='102' height='20' width='40' fill='rgb(0,00%, 0,00%, 0,00%)'/>
  <g font-weight='bold' fill='rgb(0,00%, 100,00%, 0,00%)'>
   <text x='522' y='117'>1</text>
   <text x='532' y='117'>7</text>
   <text x='542' y='117'>5</text>
   <text x='552' y='117'>7</text>
  </g>
  <rect x='562' y='102' height='20' width='40' fill='rgb(0,00%, 0,00%, 0,00%)'/>
  <g fill='rgb(0,00%, 80,41%, 0,00%)'>
   <text x='572' y='117'>t</text>
   <text x='582' y='117'>h</text>
   <text x='592' y='117'>r</text>
  </g>
  <rect x='602' y='102' height='20' width='20' fill='rgb(0,00%, 0,00%, 0,00%)'/>
  <g fill='rgb(0,00%, 80,41%, 80,41%)'>
   <text x='602' y='117'>;</text>
  </g>
  <rect x='622' y='102' height='20' width='10' fill='rgb(0,00%, 0,00%, 0,00%)'/>
  <g font-weight='bold' fill='rgb(0,00%, 100,00%, 0,00%)'>
   <text x='622' y='117'>2</text>
  </g>
  <rect x='632' y='102' height='20' width='80' fill='rgb(0,00%, 0,00%, 0,00%)'/>
  <g fill='rgb(0,00%, 80,41%, 80,41%)'>
   <text x='642' y='117'>r</text>
   <text x='652' y='117'>u</text>
   <text x='662' y='117'>n</text>
   <text x='672' y='117'>n</text>
   <text x='682' y='117'>i</text>
   <text x='692' y='117'>n</text>
   <text x='702' y='117'>g</text>
  </g>
  <rect x='712' y='102' height='20' width='90' fill='rgb(0,00%, 0,00%, 0,00%)'/>
  <g fill='rgb(89,84%, 89,84%, 89,84%)'>
  </g>
  <!-- Row 6 -->
  <rect x='2' y='122' height='20' width='20' fill='rgb(0,00%, 0,00%, 0,00%)'/>
  <g fill='rgb(89,84%, 89,84%, 89,84%)'>
  </g>
  <rect x='22' y='122' height='20' width='30' fill='rgb(0,00%, 0,00%, 0,00%)'/>
  <g fill='rgb(0,00%, 80,41%, 80,41%)'>
   <text x='22' y='137'>S</text>
   <text x='32' y='137'>w</text>
   <text x='42' y='137'>p</text>
  </g>
  <rect x='52' y='122' height='20' width='10' fill='rgb(0,00%, 0,00%, 0,00%)'/>
  <g font-weight='bold' fill='rgb(89,84%, 89,84%, 89,84%)'>
   <text x='52' y='137'>[</text>
  </g>
  <rect x='62' y='122' height='20' width='10' fill='rgb(0,00%, 0,00%, 0,00%)'/>
  <g fill='rgb(80,41%, 0,00%, 0,00%)'>
   <text x='62' y='137'>|</text>
  </g>
  <rect x='72' y='122' height='20' width='190' fill='rgb(0,00%, 0,00%, 0,00%)'/>
  <g fill='rgb(49,78%, 49,78%, 49,78%)'>
  </g>
  <rect x='262' y='122' height='20' width='100' fill='rgb(0,00%, 0,00%, 0,00%)'/>
  <g font-weight='bold' fill='rgb(49,78%, 49,78%, 49,78%)'>
   <text x='262' y='137'>2</text>
   <text x='272' y='137'>6</text>
   <text x='282' y='137'>5</text>
   <text x='292' y='137'>M</text>
   <text x='302' y='137'>/</text>
   <text x='312' y='137'>3</text>
   <text x='322' y='137'>1</text>
   <text x='332' y='137'>.</text>
   <text x='342' y='137'>6</text>
   <text x='352' y='137'>G</text>
  </g>
  <rect x='362' y='122' height='20' width='10' fill='rgb(0,00%, 0,00%, 0,00%)'/>
  <g font-weight='bold' fill='rgb(89,84%, 89,84%, 89,84%)'>
   <text x='362' y='137'>]</text>
  </g>
  <rect x='372' y='122' height='20' width='30' fill='rgb(0,00%, 0,00%, 0,00%)'/>
  <g fill='rgb(89,84%, 89,84%, 89,84%)'>
  </g>
  <rect x='402' y='122' height='20' width='140' fill='rgb(0,00%, 0,00%, 0,00%)'/>
  <g fill='rgb(0,00%, 80,41%, 80,41%)'>
   <text x='402' y='137'>L</text>
   <text x='412' y='137'>o</text>
   <text x='422' y='137'>a</text>
   <text x='432' y='137'>d</text>
   <text x='452' y='137'>a</text>
   <text x='462' y='137'>v</text>
   <text x='472' y='137'>e</text>
   <text x='482' y='137'>r</text>
   <text x='492' y='137'>a</text>
   <text x='502' y='137'>g</text>
   <text x='512' y='137'>e</text>
   <text x='522' y='137'>:</text>
  </g>
  <rect x='542' y='122' height='20' width='50' fill='rgb(0,00%, 0,00%, 0,00%)'/>
  <g font-weight='bold' fill='rgb(89,84%, 89,84%, 89,84%)'>
   <text x='542' y='137'>1</text>
   <text x='552' y='137'>.</text>
   <text x='562' y='137'>2</text>
   <text x='572' y='137'>6</text>
  </g>
  <rect x='592' y='122' height='20' width='50' fill='rgb(0,00%, 0,00%, 0,00%)'/>
  <g font-weight='bold' fill='rgb(0,00%, 100,00%, 100,00%)'>
   <text x='592' y='137'>0</text>
   <text x='602' y='137'>.</text>
   <text x='612' y='137'>9</text>
   <text x='622' y='137'>5</text>
  </g>
  <rect x='642' y='122' height='20' width='50' fill='rgb(0,00%, 0,00%, 0,00%)'/>
  <g fill='rgb(0,00%, 80,41%, 80,41%)'>
   <text x='642' y='137'>0</text>
   <text x='652' y='137'>.</text>
   <text x='662' y='137'>8</text>
   <text x='672' y='137'>7</text>
  </g>
  <rect x='692' y='122' height='20' width='110' fill='rgb(0,00%, 0,00%, 0,00%)'/>
  <g fill='rgb(89,84%, 89,84%, 89,84%)'>
  </g>
  <!-- Row 7 -->
  <rect x='2' y='142' height='20' width='400' fill='rgb(0,00%, 0,00%, 0,00%)'/>
  <g fill='rgb(89,84%, 89,84%, 89,84%)'>
  </g>
  <rect x='402' y='142' height='20' width='80' fill='rgb(0,00%, 0,00%, 0,00%)'/>
  <g fill='rgb(0,00%, 80,41%, 80,41%)'>
   <text x='402' y='157'>U</text>
   <text x='412' y='157'>p</text>
   <text x='422' y='157'>t</text>
   <text x='432' y='157'>i</text>
   <text x='442' y='157'>m</text>
   <text x='452' y='157'>e</text>
   <text x='462' y='157'>:</text>
  </g>
  <rect x='482' y='142' height='20' width='170' fill='rgb(0,00%, 0,00%, 0,00%)'/>
  <g font-weight='bold' fill='rgb(0,00%, 100,00%, 100,00%)'>
   <text x='482' y='157'>1</text>
   <text x='492' y='157'>9</text>
   <text x='512' y='157'>d</text>
   <text x='522' y='157'>a</text>
   <text x='532' y='157'>y</text>
   <text x='542' y='157'>s</text>
   <text x='552' y='157'>,</text>
   <text x='572' y='157'>0</text>
   <text x='582' y='157'>0</text>
   <text x='592' y='157'>:</text>
   <text x='602' y='157'>1</text>
   <text x='612' y='157'>2</text>
   <text x='622' y='157'>:</text>
   <text x='632' y='157'>0</text>
   <text x='642' y='157'>0</text>
  </g>
  <rect x='652' y='142' height='20' width='150' fill='rgb(0,00%, 0,00%, 0,00%)'/>
  <g fill='rgb(89,84%, 89,84%, 89,84%)'>
  </g>
  <!-- Row 8 -->
  <rect x='2' y='162' height='20' width='800' fill='rgb(0,00%, 0,00%, 0,00%)'/>
  <g fill='rgb(89,84%, 89,84%, 89,84%)'>
  </g>
  <!-- Row 9 -->
  <rect x='2' y='182' height='20' width='460' fill='rgb(0,00%, 80,41%, 0,00%)'/>
  <g fill='rgb(0,00%, 0,00%, 0,00%)'>
   <text x='42' y='197'>P</text>
   <text x='52' y='197'>I</text>
   <text x='62' y='197'>D</text>
   <text x='82' y='197'>U</text>
   <text x='92' y='197'>S</text>
   <text x='102' y='197'>E</text>
   <text x='112' y='197'>R</text>
   <text x='182' y='197'>P</text>
   <text x='192' y='197'>R</text>
   <text x='202' y='197'>I</text>
   <text x='232' y='197'>N</text>
   <text x='242' y='197'>I</text>
   <text x='272' y='197'>V</text>
   <text x='282' y='197'>I</text>
   <text x='292' y='197'>R</text>
   <text x='302' y='197'>T</text>
   <text x='342' y='197'>R</text>
   <text x='352' y='197'>E</text>
   <text x='362' y='197'>S</text>
   <text x='402' y='197'>S</text>
   <text x='412' y='197'>H</text>
   <text x='422' y='197'>R</text>
   <text x='442' y='197'>S</text>
  </g>
  <rect x='462' y='182' height='20' width='50' fill='rgb(0,00%, 80,41%, 80,41%)'/>
  <g fill='rgb(0,00%, 0,00%, 0,00%)'>
   <text x='462' y='197'>C</text>
   <text x='472' y='197'>P</text>
   <text x='482' y='197'>U</text>
   <text x='492' y='197'>%</text>
  </g>
  <rect x='512' y='182' height='20' width='210' fill='rgb(0,00%, 80,41%, 0,00%)'/>
  <g fill='rgb(0,00%, 0,00%, 0,00%)'>
   <text x='512' y='197'>M</text>
   <text x='522' y='197'>E</text>
   <text x='532' y='197'>M</text>
   <text x='542' y='197'>%</text>
   <text x='582' y='197'>T</text>
   <text x='592' y='197'>I</text>
   <text x='602' y='197'>M</text>
   <text x='612' y='197'>E</text>
   <text x='622' y='197'>+</text>
   <text x='652' y='197'>C</text>
   <text x='662' y='197'>o</text>
   <text x='672' y='197'>m</text>
   <text x='682' y='197'>m</text>
   <text x='692' y='197'>a</text>
   <text x='702' y='197'>n</text>
   <text x='712' y='197'>d</text>
  </g>
  <rect x='722' y='182' height='20' width='80' fill='rgb(0,00%, 80,41%, 0,00%)'/>
  <g fill='rgb(0,00%, 0,00%, 0,00%)'>
  </g>
  <!-- Row 10 -->
  <rect x='2' y='202' height='20' width='800' fill='rgb(0,00%, 80,41%, 80,41%)'/>
  <g fill='rgb(0,00%, 0,00%, 0,00%)'>
   <text x='12' y='217'>3</text>
   <text x='22' y='217'>9</text>
   <text x='32' y='217'>1</text>
   <text x='42' y='217'>2</text>
   <text x='52' y='217'>4</text>
   <text x='62' y='217'>6</text>
   <text x='82' y='217'>b</text>
   <text x='92' y='217'>a</text>
   <text x='102' y='217'>r</text>
   <text x='112' y='217'>i</text>
   <text x='122' y='217'>n</text>
   <text x='132' y='217'>k</text>
   <text x='142' y='217'>l</text>
   <text x='192' y='217'>2</text>
   <text x='202' y='217'>0</text>
   <text x='242' y='217'>0</text>
   <text x='262' y='217'>5</text>
   <text x='272' y='217'>1</text>
   <text x='282' y='217'>7</text>
   <text x='292' y='217'>9</text>
   <text x='302' y='217'>M</text>
   <text x='322' y='217'>1</text>
   <text x='332' y='217'>3</text>
   <text x='342' y='217'>9</text>
   <text x='352' y='217'>1</text>
   <text x='362' y='217'>M</text>
   <text x='382' y='217'>9</text>
   <text x='392' y='217'>8</text>
   <text x='402' y='217'>4</text>
   <text x='412' y='217'>2</text>
   <text x='422' y='217'>4</text>
   <text x='442' y='217'>S</text>
   <text x='462' y='217'>1</text>
   <text x='472' y='217'>1</text>
   <text x='482' y='217'>.</text>
   <text x='492' y='217'>1</text>
   <text x='522' y='217'>4</text>
   <text x='532' y='217'>.</text>
   <text x='542' y='217'>4</text>
   <text x='572' y='217'>2</text>
   <text x='582' y='217'>h</text>
   <text x='592' y='217'>2</text>
   <text x='602' y='217'>6</text>
   <text x='612' y='217'>:</text>
   <text x='622' y='217'>0</text>
   <text x='632' y='217'>9</text>
   <text x='652' y='217'>/</text>
   <text x='662' y='217'>u</text>
   <text x='672' y='217'>s</text>
   <text x='682' y='217'>r</text>
   <text x='692' y='217'>/</text>
   <text x='702' y='217'>b</text>
   <text x='712' y='217'>i</text>
   <text x='722' y='217'>n</text>
   <text x='732' y='217'>/</text>
   <text x='742' y='217'>g</text>
   <text x='752' y='217'>n</text>
   <text x='762' y='217'>o</text>
   <text x='772' y='217'>m</text>
   <text x='782' y='217'>e</text>
   <text x='792' y='217'>-</text>
  </g>
  <!-- Row 11 -->
  <rect x='2' y='222' height='20' width='10' fill='rgb(0,00%, 0,00%, 0,00%)'/>
  <g fill='rgb(89,84%, 89,84%, 89,84%)'>
  </g>
  <rect x='12' y='222' height='20' width='250' fill='rgb(0,00%, 0,00%, 0,00%)'/>
  <g fill='rgb(89,84%, 89,84%, 89,84%)'>
   <text x='12' y='237'>3</text>
   <text x='22' y='237'>9</text>
   <text x='32' y='237'>2</text>
   <text x='42' y='237'>4</text>
   <text x='52' y='237'>9</text>
   <text x='62' y='237'>3</text>
   <text x='82' y='237'>b</text>
   <text x='92' y='237'>a</text>
   <text x='102' y='237'>r</text>
   <text x='112' y='237'>i</text>
   <text x='122' y='237'>n</text>
   <text x='132' y='237'>k</text>
   <text x='142' y='237'>l</text>
   <text x='192' y='237'>2</text>
   <text x='202' y='237'>0</text>
   <text x='242' y='237'>0</text>
  </g>
  <rect x='262' y='222' height='20' width='180' fill='rgb(0,00%, 0,00%, 0,00%)'/>
  <g fill='rgb(0,00%, 80,41%, 80,41%)'>
   <text x='262' y='237'>4</text>
   <text x='272' y='237'>6</text>
   <text x='282' y='237'>9</text>
   <text x='292' y='237'>4</text>
   <text x='302' y='237'>M</text>
   <text x='322' y='237'>1</text>
   <text x='332' y='237'>5</text>
   <text x='342' y='237'>1</text>
   <text x='352' y='237'>4</text>
   <text x='362' y='237'>M</text>
   <text x='392' y='237'>3</text>
   <text x='402' y='237'>0</text>
   <text x='412' y='237'>5</text>
   <text x='422' y='237'>M</text>
  </g>
  <rect x='442' y='222' height='20' width='120' fill='rgb(0,00%, 0,00%, 0,00%)'/>
  <g fill='rgb(89,84%, 89,84%, 89,84%)'>
   <text x='442' y='237'>S</text>
   <text x='472' y='237'>7</text>
   <text x='482' y='237'>.</text>
   <text x='492' y='237'>8</text>
   <text x='522' y='237'>4</text>
   <text x='532' y='237'>.</text>
   <text x='542' y='237'>8</text>
  </g>
  <rect x='562' y='222' height='20' width='30' fill='rgb(0,00%, 0,00%, 0,00%)'/>
  <g font-weight='bold' fill='rgb(100,00%, 0,00%, 0,00%)'>
   <text x='572' y='237'>6</text>
   <text x='582' y='237'>h</text>
  </g>
  <rect x='592' y='222' height='20' width='210' fill='rgb(0,00%, 0,00%, 0,00%)'/>
  <g fill='rgb(89,84%, 89,84%, 89,84%)'>
   <text x='592' y='237'>1</text>
   <text x='602' y='237'>3</text>
   <text x='612' y='237'>:</text>
   <text x='622' y='237'>1</text>
   <text x='632' y='237'>9</text>
   <text x='652' y='237'>/</text>
   <text x='662' y='237'>u</text>
   <text x='672' y='237'>s</text>
   <text x='682' y='237'>r</text>
   <text x='692' y='237'>/</text>
   <text x='702' y='237'>l</text>
   <text x='712' y='237'>i</text>
   <text x='722' y='237'>b</text>
   <text x='732' y='237'>/</text>
   <text x='742' y='237'>c</text>
   <text x='752' y='237'>h</text>
   <text x='762' y='237'>r</text>
   <text x='772' y='237'>o</text>
   <text x='782' y='237'>m</text>
   <text x='792' y='237'>i</text>
  </g>
  <!-- Row 12 -->
  <rect x='2' y='242' height='20' width='10' fill='rgb(0,00%, 0,00%, 0,00%)'/>
  <g fill='rgb(89,84%, 89,84%, 89,84%)'>
  </g>
  <rect x='12' y='242' height='20' width='250' fill='rgb(0,00%, 0,00%, 0,00%)'/>
  <g fill='rgb(89,84%, 89,84%, 89,84%)'>
   <text x='12' y='257'>3</text>
   <text x='22' y='257'>9</text>
   <text x='32' y='257'>1</text>
   <text x='42' y='257'>3</text>
   <text x='52' y='257'>3</text>
   <text x='62' y='257'>3</text>
   <text x='82' y='257'>b</text>
   <text x='92' y='257'>a</text>
   <text x='102' y='257'>r</text>
   <text x='112' y='257'>i</text>
   <text x='122' y='257'>n</text>
   <text x='132' y='257'>k</text>
   <text x='142' y='257'>l</text>
   <text x='192' y='257'>2</text>
   <text x='202' y='257'>0</text>
   <text x='242' y='257'>0</text>
  </g>
  <rect x='262' y='242' height='20' width='80' fill='rgb(0,00%, 0,00%, 0,00%)'/>
  <g fill='rgb(0,00%, 80,41%, 80,41%)'>
   <text x='272' y='257'>3</text>
   <text x='282' y='257'>7</text>
   <text x='292' y='257'>5</text>
   <text x='302' y='257'>M</text>
   <text x='322' y='257'>1</text>
   <text x='332' y='257'>2</text>
  </g>
  <rect x='342' y='242' height='20' width='40' fill='rgb(0,00%, 0,00%, 0,00%)'/>
  <g fill='rgb(89,84%, 89,84%, 89,84%)'>
   <text x='342' y='257'>7</text>
   <text x='352' y='257'>8</text>
   <text x='362' y='257'>4</text>
  </g>
  <rect x='382' y='242' height='20' width='20' fill='rgb(0,00%, 0,00%, 0,00%)'/>
  <g fill='rgb(0,00%, 80,41%, 80,41%)'>
   <text x='392' y='257'>6</text>
  </g>
  <rect x='402' y='242' height='20' width='400' fill='rgb(0,00%, 0,00%, 0,00%)'/>
  <g fill='rgb(89,84%, 89,84%, 89,84%)'>
   <text x='402' y='257'>4</text>
   <text x='412' y='257'>0</text>
   <text x='422' y='257'>4</text>
   <text x='442' y='257'>S</text>
   <text x='472' y='257'>7</text>
   <text x='482' y='257'>.</text>
   <text x='492' y='257'>8</text>
   <text x='522' y='257'>0</text>
   <text x='532' y='257'>.</text>
   <text x='542' y='257'>0</text>
   <text x='572' y='257'>6</text>
   <text x='582' y='257'>:</text>
   <text x='592' y='257'>1</text>
   <text x='602' y='257'>7</text>
   <text x='612' y='257'>.</text>
   <text x='622' y='257'>6</text>
   <text x='632' y='257'>7</text>
   <text x='652' y='257'>i</text>
   <text x='662' y='257'>b</text>
   <text x='672' y='257'>u</text>
   <text x='682' y='257'>s</text>
   <text x='692' y='257'>-</text>
   <text x='702' y='257'>d</text>
   <text x='712' y='257'>a</text>
   <text x='722' y='257'>e</text>
   <text x='732' y='257'>m</text>
   <text x='742' y='257'>o</text>
   <text x='752' y='257'>n</text>
   <text x='772' y='257'>-</text>
   <text x='782' y='257'>-</text>
   <text x='792' y='257'>p</text>
  </g>
  <!-- Row 13 -->
  <rect x='2' y='262' height='20' width='10' fill='rgb(0,00%, 0,00%, 0,00%)'/>
  <g fill='rgb(89,84%, 89,84%, 89,84%)'>
  </g>
  <rect x='12' y='262' height='20' width='70' fill='rgb(0,00%, 0,00%, 0,00%)'/>
  <g fill='rgb(89,84%, 89,84%, 89,84%)'>
   <text x='12' y='277'>3</text>
   <text x='22' y='277'>9</text>
   <text x='32' y='277'>1</text>
   <text x='42' y='277'>0</text>
   <text x='52' y='277'>4</text>
   <text x='62' y='277'>1</text>
  </g>
  <rect x='82' y='262' height='20' width='100' fill='rgb(0,00%, 0,00%, 0,00%)'/>
  <g font-weight='bold' fill='rgb(49,78%, 49,78%, 49,78%)'>
   <text x='82' y='277'>r</text>
   <text x='92' y='277'>o</text>
   <text x='102' y='277'>o</text>
   <text x='112' y='277'>t</text>
  </g>
  <rect x='182' y='262' height='20' width='80' fill='rgb(0,00%, 0,00%, 0,00%)'/>
  <g fill='rgb(89,84%, 89,84%, 89,84%)'>
   <text x='192' y='277'>2</text>
   <text x='202' y='277'>0</text>
   <text x='242' y='277'>0</text>
  </g>
  <rect x='262' y='262' height='20' width='140' fill='rgb(0,00%, 0,00%, 0,00%)'/>
  <g fill='rgb(0,00%, 80,41%, 80,41%)'>
   <text x='272' y='277'>3</text>
   <text x='282' y='277'>0</text>
   <text x='292' y='277'>4</text>
   <text x='302' y='277'>M</text>
   <text x='332' y='277'>1</text>
   <text x='342' y='277'>2</text>
   <text x='352' y='277'>1</text>
   <text x='362' y='277'>M</text>
   <text x='382' y='277'>7</text>
   <text x='392' y='277'>5</text>
  </g>
  <rect x='402' y='262' height='20' width='160' fill='rgb(0,00%, 0,00%, 0,00%)'/>
  <g fill='rgb(89,84%, 89,84%, 89,84%)'>
   <text x='402' y='277'>4</text>
   <text x='412' y='277'>3</text>
   <text x='422' y='277'>2</text>
   <text x='442' y='277'>S</text>
   <text x='472' y='277'>7</text>
   <text x='482' y='277'>.</text>
   <text x='492' y='277'>2</text>
   <text x='522' y='277'>0</text>
   <text x='532' y='277'>.</text>
   <text x='542' y='277'>4</text>
  </g>
  <rect x='562' y='262' height='20' width='30' fill='rgb(0,00%, 0,00%, 0,00%)'/>
  <g font-weight='bold' fill='rgb(100,00%, 0,00%, 0,00%)'>
   <text x='572' y='277'>3</text>
   <text x='582' y='277'>h</text>
  </g>
  <rect x='592' y='262' height='20' width='210' fill='rgb(0,00%, 0,00%, 0,00%)'/>
  <g fill='rgb(89,84%, 89,84%, 89,84%)'>
   <text x='592' y='277'>4</text>
   <text x='602' y='277'>6</text>
   <text x='612' y='277'>:</text>
   <text x='622' y='277'>3</text>
   <text x='632' y='277'>9</text>
   <text x='652' y='277'>/</text>
   <text x='662' y='277'>u</text>
   <text x='672' y='277'>s</text>
   <text x='682' y='277'>r</text>
   <text x='692' y='277'>/</text>
   <text x='702' y='277'>l</text>
   <text x='712' y='277'>i</text>
   <text x='722' y='277'>b</text>
   <text x='732' y='277'>/</text>
   <text x='742' y='277'>x</text>
   <text x='752' y='277'>o</text>
   <text x='762' y='277'>r</text>
   <text x='772' y='277'>g</text>
   <text x='782' y='277'>/</text>
   <text x='792' y='277'>X</text>
  </g>
  <!-- Row 14 -->
  <rect x='2' y='282' height='20' width='10' fill='rgb(0,00%, 0,00%, 0,00%)'/>
  <g fill='rgb(89,84%, 89,84%, 89,84%)'>
  </g>
  <rect x='12' y='282' height='20' width='250' fill='rgb(0,00%, 0,00%, 0,00%)'/>
  <g fill='rgb(89,84%, 89,84%, 89,84%)'>
   <text x='12' y='297'>7</text>
   <text x='22' y='297'>6</text>
   <text x='32' y='297'>0</text>
   <text x='42' y='297'>8</text>
   <text x='52' y='297'>7</text>
   <text x='62' y='297'>1</text>
   <text x='82' y='297'>b</text>
   <text x='92' y='297'>a</text>
   <text x='102' y='297'>r</text>
   <text x='112' y='297'>i</text>
   <text x='122' y='297'>n</text>
   <text x='132' y='297'>k</text>
   <text x='142' y='297'>l</text>
   <text x='192' y='297'>2</text>
   <text x='202' y='297'>0</text>
   <text x='242' y='297'>0</text>
  </g>
  <rect x='262' y='282' height='20' width='140' fill='rgb(0,00%, 0,00%, 0,00%)'/>
  <g fill='rgb(0,00%, 80,41%, 80,41%)'>
   <text x='262' y='297'>5</text>
   <text x='272' y='297'>8</text>
   <text x='282' y='297'>8</text>
   <text x='292' y='297'>2</text>
   <text x='302' y='297'>M</text>
   <text x='332' y='297'>4</text>
   <text x='342' y='297'>2</text>
   <text x='352' y='297'>3</text>
   <text x='362' y='297'>M</text>
   <text x='382' y='297'>9</text>
   <text x='392' y='297'>2</text>
  </g>
  <rect x='402' y='282' height='20' width='400' fill='rgb(0,00%, 0,00%, 0,00%)'/>
  <g fill='rgb(89,84%, 89,84%, 89,84%)'>
   <text x='402' y='297'>5</text>
   <text x='412' y='297'>5</text>
   <text x='422' y='297'>6</text>
   <text x='442' y='297'>S</text>
   <text x='472' y='297'>4</text>
   <text x='482' y='297'>.</text>
   <text x='492' y='297'>6</text>
   <text x='522' y='297'>1</text>
   <text x='532' y='297'>.</text>
   <text x='542' y='297'>3</text>
   <text x='562' y='297'>5</text>
   <text x='572' y='297'>7</text>
   <text x='582' y='297'>:</text>
   <text x='592' y='297'>0</text>
   <text x='602' y='297'>2</text>
   <text x='612' y='297'>.</text>
   <text x='622' y='297'>5</text>
   <text x='632' y='297'>9</text>
   <text x='652' y='297'>/</text>
   <text x='662' y='297'>u</text>
   <text x='672' y='297'>s</text>
   <text x='682' y='297'>r</text>
   <text x='692' y='297'>/</text>
   <text x='702' y='297'>l</text>
   <text x='712' y='297'>i</text>
   <text x='722' y='297'>b</text>
   <text x='732' y='297'>/</text>
   <text x='742' y='297'>c</text>
   <text x='752' y='297'>h</text>
   <text x='762' y='297'>r</text>
   <text x='772' y='297'>o</text>
   <text x='782' y='297'>m</text>
   <text x='792' y='297'>i</text>
  </g>
  <!-- Row 15 -->
  <rect x='2' y='302' height='20' width='10' fill='rgb(0,00%, 0,00%, 0,00%)'/>
  <g fill='rgb(89,84%, 89,84%, 89,84%)'>
  </g>
  <rect x='12' y='302' height='20' width='250' fill='rgb(0,00%, 0,00%, 0,00%)'/>
  <g fill='rgb(89,84%, 89,84%, 89,84%)'>
   <text x='12' y='317'>3</text>
   <text x='22' y='317'>9</text>
   <text x='32' y='317'>1</text>
   <text x='42' y='317'>3</text>
   <text x='52' y='317'>3</text>
   <text x='62' y='317'>5</text>
   <text x='82' y='317'>b</text>
   <text x='92' y='317'>a</text>
   <text x='102' y='317'>r</text>
   <text x='112' y='317'>i</text>
   <text x='122' y='317'>n</text>
   <text x='132' y='317'>k</text>
   <text x='142' y='317'>l</text>
   <text x='192' y='317'>2</text>
   <text x='202' y='317'>0</text>
   <text x='242' y='317'>0</text>
  </g>
  <rect x='262' y='302' height='20' width='80' fill='rgb(0,00%, 0,00%, 0,00%)'/>
  <g fill='rgb(0,00%, 80,41%, 80,41%)'>
   <text x='272' y='317'>3</text>
   <text x='282' y='317'>7</text>
   <text x='292' y='317'>5</text>
   <text x='302' y='317'>M</text>
   <text x='322' y='317'>1</text>
   <text x='332' y='317'>2</text>
  </g>
  <rect x='342' y='302' height='20' width='40' fill='rgb(0,00%, 0,00%, 0,00%)'/>
  <g fill='rgb(89,84%, 89,84%, 89,84%)'>
   <text x='342' y='317'>7</text>
   <text x='352' y='317'>8</text>
   <text x='362' y='317'>4</text>
  </g>
  <rect x='382' y='302' height='20' width='20' fill='rgb(0,00%, 0,00%, 0,00%)'/>
  <g fill='rgb(0,00%, 80,41%, 80,41%)'>
   <text x='392' y='317'>6</text>
  </g>
  <rect x='402' y='302' height='20' width='250' fill='rgb(0,00%, 0,00%, 0,00%)'/>
  <g fill='rgb(89,84%, 89,84%, 89,84%)'>
   <text x='402' y='317'>4</text>
   <text x='412' y='317'>0</text>
   <text x='422' y='317'>4</text>
   <text x='442' y='317'>S</text>
   <text x='472' y='317'>4</text>
   <text x='482' y='317'>.</text>
   <text x='492' y='317'>6</text>
   <text x='522' y='317'>0</text>
   <text x='532' y='317'>.</text>
   <text x='542' y='317'>0</text>
   <text x='572' y='317'>3</text>
   <text x='582' y='317'>:</text>
   <text x='592' y='317'>3</text>
   <text x='602' y='317'>6</text>
   <text x='612' y='317'>.</text>
   <text x='622' y='317'>0</text>
   <text x='632' y='317'>7</text>
  </g>
  <rect x='652' y='302' height='20' width='150' fill='rgb(0,00%, 0,00%, 0,00%)'/>
  <g fill='rgb(0,00%, 80,41%, 0,00%)'>
   <text x='652' y='317'>i</text>
   <text x='662' y='317'>b</text>
   <text x='672' y='317'>u</text>
   <text x='682' y='317'>s</text>
   <text x='692' y='317'>-</text>
   <text x='702' y='317'>d</text>
   <text x='712' y='317'>a</text>
   <text x='722' y='317'>e</text>
   <text x='732' y='317'>m</text>
   <text x='742' y='317'>o</text>
   <text x='752' y='317'>n</text>
   <text x='772' y='317'>-</text>
   <text x='782' y='317'>-</text>
   <text x='792' y='317'>p</text>
  </g>
  <!-- Row 16 -->
  <rect x='2' y='322' height='20' width='260' fill='rgb(0,00%, 0,00%, 0,00%)'/>
  <g fill='rgb(89,84%, 89,84%, 89,84%)'>
   <text x='12' y='337'>3</text>
   <text x='22' y='337'>9</text>
   <text x='32' y='337'>2</text>
   <text x='42' y='337'>5</text>
   <text x='52' y='337'>3</text>
   <text x='62' y='337'>3</text>
   <text x='82' y='337'>b</text>
   <text x='92' y='337'>a</text>
   <text x='102' y='337'>r</text>
   <text x='112' y='337'>i</text>
   <text x='122' y='337'>n</text>
   <text x='132' y='337'>k</text>
   <text x='142' y='337'>l</text>
   <text x='192' y='337'>2</text>
   <text x='202' y='337'>0</text>
   <text x='242' y='337'>0</text>
  </g>
  <rect x='262' y='322' height='20' width='180' fill='rgb(0,00%, 0,00%, 0,00%)'/>
  <g fill='rgb(0,00%, 80,41%, 80,41%)'>
   <text x='262' y='337'>2</text>
   <text x='272' y='337'>9</text>
   <text x='282' y='337'>2</text>
   <text x='292' y='337'>8</text>
   <text x='302' y='337'>M</text>
   <text x='322' y='337'>1</text>
   <text x='332' y='337'>9</text>
   <text x='342' y='337'>1</text>
   <text x='352' y='337'>4</text>
   <text x='362' y='337'>M</text>
   <text x='392' y='337'>1</text>
   <text x='402' y='337'>4</text>
   <text x='412' y='337'>4</text>
   <text x='422' y='337'>M</text>
  </g>
  <rect x='442' y='322' height='20' width='120' fill='rgb(0,00%, 0,00%, 0,00%)'/>
  <g fill='rgb(89,84%, 89,84%, 89,84%)'>
   <text x='442' y='337'>S</text>
   <text x='472' y='337'>3</text>
   <text x='482' y='337'>.</text>
   <text x='492' y='337'>9</text>
   <text x='522' y='337'>6</text>
   <text x='532' y='337'>.</text>
   <text x='542' y='337'>0</text>
  </g>
  <rect x='562' y='322' height='20' width='30' fill='rgb(0,00%, 0,00%, 0,00%)'/>
  <g font-weight='bold' fill='rgb(100,00%, 0,00%, 0,00%)'>
   <text x='562' y='337'>1</text>
   <text x='572' y='337'>6</text>
   <text x='582' y='337'>h</text>
  </g>
  <rect x='592' y='322' height='20' width='210' fill='rgb(0,00%, 0,00%, 0,00%)'/>
  <g fill='rgb(89,84%, 89,84%, 89,84%)'>
   <text x='592' y='337'>1</text>
   <text x='602' y='337'>4</text>
   <text x='612' y='337'>:</text>
   <text x='622' y='337'>4</text>
   <text x='632' y='337'>8</text>
   <text x='652' y='337'>/</text>
   <text x='662' y='337'>u</text>
   <text x='672' y='337'>s</text>
   <text x='682' y='337'>r</text>
   <text x='692' y='337'>/</text>
   <text x='702' y='337'>l</text>
   <text x='712' y='337'>i</text>
   <text x='722' y='337'>b</text>
   <text x='732' y='337'>/</text>
   <text x='742' y='337'>c</text>
   <text x='752' y='337'>h</text>
   <text x='762' y='337'>r</text>
   <text x='772' y='337'>o</text>
   <text x='782' y='337'>m</text>
   <text x='792' y='337'>i</text>
  </g>
  <!-- Row 17 -->
  <rect x='2' y='342' height='20' width='10' fill='rgb(0,00%, 0,00%, 0,00%)'/>
  <g fill='rgb(89,84%, 89,84%, 89,84%)'>
  </g>
  <rect x='12' y='342' height='20' width='250' fill='rgb(0,00%, 0,00%, 0,00%)'/>
  <g fill='rgb(89,84%, 89,84%, 89,84%)'>
   <text x='12' y='357'>3</text>
   <text x='22' y='357'>9</text>
   <text x='32' y='357'>2</text>
   <text x='42' y='357'>3</text>
   <text x='52' y='357'>6</text>
   <text x='62' y='357'>5</text>
   <text x='82' y='357'>b</text>
   <text x='92' y='357'>a</text>
   <text x='102' y='357'>r</text>
   <text x='112' y='357'>i</text>
   <text x='122' y='357'>n</text>
   <text x='132' y='357'>k</text>
   <text x='142' y='357'>l</text>
   <text x='192' y='357'>2</text>
   <text x='202' y='357'>0</text>
   <text x='242' y='357'>0</text>
  </g>
  <rect x='262' y='342' height='20' width='140' fill='rgb(0,00%, 0,00%, 0,00%)'/>
  <g fill='rgb(0,00%, 80,41%, 80,41%)'>
   <text x='262' y='357'>3</text>
   <text x='272' y='357'>5</text>
   <text x='282' y='357'>4</text>
   <text x='292' y='357'>6</text>
   <text x='302' y='357'>M</text>
   <text x='332' y='357'>6</text>
   <text x='342' y='357'>5</text>
   <text x='352' y='357'>8</text>
   <text x='362' y='357'>M</text>
   <text x='382' y='357'>6</text>
   <text x='392' y='357'>5</text>
  </g>
  <rect x='402' y='342' height='20' width='160' fill='rgb(0,00%, 0,00%, 0,00%)'/>
  <g fill='rgb(89,84%, 89,84%, 89,84%)'>
   <text x='402' y='357'>9</text>
   <text x='412' y='357'>9</text>
   <text x='422' y='357'>6</text>
   <text x='442' y='357'>S</text>
   <text x='472' y='357'>3</text>
   <text x='482' y='357'>.</text>
   <text x='492' y='357'>3</text>
   <text x='522' y='357'>2</text>
   <text x='532' y='357'>.</text>
   <text x='542' y='357'>1</text>
  </g>
  <rect x='562' y='342' height='20' width='30' fill='rgb(0,00%, 0,00%, 0,00%)'/>
  <g font-weight='bold' fill='rgb(100,00%, 0,00%, 0,00%)'>
   <text x='572' y='357'>5</text>
   <text x='582' y='357'>h</text>
  </g>
  <rect x='592' y='342' height='20' width='210' fill='rgb(0,00%, 0,00%, 0,00%)'/>
  <g fill='rgb(89,84%, 89,84%, 89,84%)'>
   <text x='592' y='357'>2</text>
   <text x='602' y='357'>8</text>
   <text x='612' y='357'>:</text>
   <text x='622' y='357'>2</text>
   <text x='632' y='357'>2</text>
   <text x='652' y='357'>/</text>
   <text x='662' y='357'>u</text>
   <text x='672' y='357'>s</text>
   <text x='682' y='357'>r</text>
   <text x='692' y='357'>/</text>
   <text x='702' y='357'>s</text>
   <text x='712' y='357'>h</text>
   <text x='722' y='357'>a</text>
   <text x='732' y='357'>r</text>
   <text x='742' y='357'>e</text>
   <text x='752' y='357'>/</text>
   <text x='762' y='357'>t</text>
   <text x='772' y='357'>e</text>
   <text x='782' y='357'>a</text>
   <text x='792' y='357'>m</text>
  </g>
  <!-- Row 18 -->
  <rect x='2' y='362' height='20' width='10' fill='rgb(0,00%, 0,00%, 0,00%)'/>
  <g fill='rgb(89,84%, 89,84%, 89,84%)'>
  </g>
  <rect x='12' y='362' height='20' width='250' fill='rgb(0,00%, 0,00%, 0,00%)'/>
  <g fill='rgb(89,84%, 89,84%, 89,84%)'>
   <text x='12' y='377'>3</text>
   <text x='22' y='377'>9</text>
   <text x='32' y='377'>1</text>
   <text x='42' y='377'>3</text>
   <text x='52' y='377'>4</text>
   <text x='62' y='377'>0</text>
   <text x='82' y='377'>b</text>
   <text x='92' y='377'>a</text>
   <text x='102' y='377'>r</text>
   <text x='112' y='377'>i</text>
   <text x='122' y='377'>n</text>
   <text x='132' y='377'>k</text>
   <text x='142' y='377'>l</text>
   <text x='192' y='377'>2</text>
   <text x='202' y='377'>0</text>
   <text x='242' y='377'>0</text>
  </g>
  <rect x='262' y='362' height='20' width='80' fill='rgb(0,00%, 0,00%, 0,00%)'/>
  <g fill='rgb(0,00%, 80,41%, 80,41%)'>
   <text x='272' y='377'>2</text>
   <text x='282' y='377'>7</text>
   <text x='292' y='377'>7</text>
   <text x='302' y='377'>M</text>
   <text x='322' y='377'>2</text>
   <text x='332' y='377'>3</text>
  </g>
  <rect x='342' y='362' height='20' width='40' fill='rgb(0,00%, 0,00%, 0,00%)'/>
  <g fill='rgb(89,84%, 89,84%, 89,84%)'>
   <text x='342' y='377'>6</text>
   <text x='352' y='377'>4</text>
   <text x='362' y='377'>0</text>
  </g>
  <rect x='382' y='362' height='20' width='20' fill='rgb(0,00%, 0,00%, 0,00%)'/>
  <g fill='rgb(0,00%, 80,41%, 80,41%)'>
   <text x='382' y='377'>1</text>
   <text x='392' y='377'>4</text>
  </g>
  <rect x='402' y='362' height='20' width='400' fill='rgb(0,00%, 0,00%, 0,00%)'/>
  <g fill='rgb(89,84%, 89,84%, 89,84%)'>
   <text x='402' y='377'>6</text>
   <text x='412' y='377'>1</text>
   <text x='422' y='377'>6</text>
   <text x='442' y='377'>S</text>
   <text x='472' y='377'>3</text>
   <text x='482' y='377'>.</text>
   <text x='492' y='377'>3</text>
   <text x='522' y='377'>0</text>
   <text x='532' y='377'>.</text>
   <text x='542' y='377'>1</text>
   <text x='572' y='377'>1</text>
   <text x='582' y='377'>:</text>
   <text x='592' y='377'>1</text>
   <text x='602' y='377'>3</text>
   <text x='612' y='377'>.</text>
   <text x='622' y='377'>6</text>
   <text x='632' y='377'>7</text>
   <text x='652' y='377'>/</text>
   <text x='662' y='377'>u</text>
   <text x='672' y='377'>s</text>
   <text x='682' y='377'>r</text>
   <text x='692' y='377'>/</text>
   <text x='702' y='377'>l</text>
   <text x='712' y='377'>i</text>
   <text x='722' y='377'>b</text>
   <text x='732' y='377'>e</text>
   <text x='742' y='377'>x</text>
   <text x='752' y='377'>e</text>
   <text x='762' y='377'>c</text>
   <text x='772' y='377'>/</text>
   <text x='782' y='377'>i</text>
   <text x='792' y='377'>b</text>
  </g>
  <!-- Row 19 -->
  <rect x='2' y='382' height='20' width='10' fill='rgb(0,00%, 0,00%, 0,00%)'/>
  <g fill='rgb(89,84%, 89,84%, 89,84%)'>
  </g>
  <rect x='12' y='382' height='20' width='250' fill='rgb(0,00%, 0,00%, 0,00%)'/>
  <g fill='rgb(89,84%, 89,84%, 89,84%)'>
   <text x='12' y='397'>3</text>
   <text x='22' y='397'>9</text>
   <text x='32' y='397'>1</text>
   <text x='42' y='397'>3</text>
   <text x='52' y='397'>4</text>
   <text x='62' y='397'>2</text>
   <text x='82' y='397'>b</text>
   <text x='92' y='397'>a</text>
   <text x='102' y='397'>r</text>
   <text x='112' y='397'>i</text>
   <text x='122' y='397'>n</text>
   <text x='132' y='397'>k</text>
   <text x='142' y='397'>l</text>
   <text x='192' y='397'>2</text>
   <text x='202' y='397'>0</text>
   <text x='242' y='397'>0</text>
  </g>
  <rect x='262' y='382' height='20' width='80' fill='rgb(0,00%, 0,00%, 0,00%)'/>
  <g fill='rgb(0,00%, 80,41%, 80,41%)'>
   <text x='272' y='397'>2</text>
   <text x='282' y='397'>0</text>
   <text x='292' y='397'>1</text>
   <text x='302' y='397'>M</text>
   <text x='322' y='397'>1</text>
   <text x='332' y='397'>9</text>
  </g>
  <rect x='342' y='382' height='20' width='40' fill='rgb(0,00%, 0,00%, 0,00%)'/>
  <g fill='rgb(89,84%, 89,84%, 89,84%)'>
   <text x='342' y='397'>7</text>
   <text x='352' y='397'>6</text>
   <text x='362' y='397'>4</text>
  </g>
  <rect x='382' y='382' height='20' width='20' fill='rgb(0,00%, 0,00%, 0,00%)'/>
  <g fill='rgb(0,00%, 80,41%, 80,41%)'>
   <text x='382' y='397'>1</text>
   <text x='392' y='397'>4</text>
  </g>
  <rect x='402' y='382' height='20' width='400' fill='rgb(0,00%, 0,00%, 0,00%)'/>
  <g fill='rgb(89,84%, 89,84%, 89,84%)'>
   <text x='402' y='397'>8</text>
   <text x='412' y='397'>2</text>
   <text x='422' y='397'>4</text>
   <text x='442' y='397'>S</text>
   <text x='472' y='397'>3</text>
   <text x='482' y='397'>.</text>
   <text x='492' y='397'>3</text>
   <text x='522' y='397'>0</text>
   <text x='532' y='397'>.</text>
   <text x='542' y='397'>1</text>
   <text x='572' y='397'>0</text>
   <text x='582' y='397'>:</text>
   <text x='592' y='397'>5</text>
   <text x='602' y='397'>7</text>
   <text x='612' y='397'>.</text>
   <text x='622' y='397'>4</text>
   <text x='632' y='397'>1</text>
   <text x='652' y='397'>/</text>
   <text x='662' y='397'>u</text>
   <text x='672' y='397'>s</text>
   <text x='682' y='397'>r</text>
   <text x='692' y='397'>/</text>
   <text x='702' y='397'>l</text>
   <text x='712' y='397'>i</text>
   <text x='722' y='397'>b</text>
   <text x='732' y='397'>e</text>
   <text x='742' y='397'>x</text>
   <text x='752' y='397'>e</text>
   <text x='762' y='397'>c</text>
   <text x='772' y='397'>/</text>
   <text x='782' y='397'>i</text>
   <text x='792' y='397'>b</text>
  </g>
  <!-- Row 20 -->
  <rect x='2' y='402' height='20' width='10' fill='rgb(0,00%, 0,00%, 0,00%)'/>
  <g fill='rgb(89,84%, 89,84%, 89,84%)'>
  </g>
  <rect x='12' y='402' height='20' width='250' fill='rgb(0,00%, 0,00%, 0,00%)'/>
  <g fill='rgb(89,84%, 89,84%, 89,84%)'>
   <text x='12' y='417'>9</text>
   <text x='22' y='417'>5</text>
   <text x='32' y='417'>2</text>
   <text x='42' y='417'>1</text>
   <text x='52' y='417'>2</text>
   <text x='62' y='417'>7</text>
   <text x='82' y='417'>b</text>
   <text x='92' y='417'>a</text>
   <text x='102' y='417'>r</text>
   <text x='112' y='417'>i</text>
   <text x='122' y='417'>n</text>
   <text x='132' y='417'>k</text>
   <text x='142' y='417'>l</text>
   <text x='192' y='417'>2</text>
   <text x='202' y='417'>0</text>
   <text x='242' y='417'>0</text>
  </g>
  <rect x='262' y='402' height='20' width='20' fill='rgb(0,00%, 0,00%, 0,00%)'/>
  <g fill='rgb(0,00%, 80,41%, 80,41%)'>
   <text x='272' y='417'>9</text>
  </g>
  <rect x='282' y='402' height='20' width='40' fill='rgb(0,00%, 0,00%, 0,00%)'/>
  <g fill='rgb(89,84%, 89,84%, 89,84%)'>
   <text x='282' y='417'>5</text>
   <text x='292' y='417'>2</text>
   <text x='302' y='417'>8</text>
  </g>
  <rect x='322' y='402' height='20' width='20' fill='rgb(0,00%, 0,00%, 0,00%)'/>
  <g fill='rgb(0,00%, 80,41%, 80,41%)'>
   <text x='332' y='417'>5</text>
  </g>
  <rect x='342' y='402' height='20' width='40' fill='rgb(0,00%, 0,00%, 0,00%)'/>
  <g fill='rgb(89,84%, 89,84%, 89,84%)'>
   <text x='342' y='417'>6</text>
   <text x='352' y='417'>0</text>
   <text x='362' y='417'>4</text>
  </g>
  <rect x='382' y='402' height='20' width='20' fill='rgb(0,00%, 0,00%, 0,00%)'/>
  <g fill='rgb(0,00%, 80,41%, 80,41%)'>
   <text x='392' y='417'>3</text>
  </g>
  <rect x='402' y='402' height='20' width='40' fill='rgb(0,00%, 0,00%, 0,00%)'/>
  <g fill='rgb(89,84%, 89,84%, 89,84%)'>
   <text x='402' y='417'>3</text>
   <text x='412' y='417'>4</text>
   <text x='422' y='417'>8</text>
  </g>
  <rect x='442' y='402' height='20' width='20' fill='rgb(0,00%, 0,00%, 0,00%)'/>
  <g fill='rgb(0,00%, 80,41%, 0,00%)'>
   <text x='442' y='417'>R</text>
  </g>
  <rect x='462' y='402' height='20' width='230' fill='rgb(0,00%, 0,00%, 0,00%)'/>
  <g fill='rgb(89,84%, 89,84%, 89,84%)'>
   <text x='472' y='417'>2</text>
   <text x='482' y='417'>.</text>
   <text x='492' y='417'>6</text>
   <text x='522' y='417'>0</text>
   <text x='532' y='417'>.</text>
   <text x='542' y='417'>0</text>
   <text x='572' y='417'>0</text>
   <text x='582' y='417'>:</text>
   <text x='592' y='417'>0</text>
   <text x='602' y='417'>0</text>
   <text x='612' y='417'>.</text>
   <text x='622' y='417'>2</text>
   <text x='632' y='417'>2</text>
   <text x='652' y='417'>h</text>
   <text x='662' y='417'>t</text>
   <text x='672' y='417'>o</text>
   <text x='682' y='417'>p</text>
  </g>
  <rect x='692' y='402' height='20' width='110' fill='rgb(0,00%, 0,00%, 0,00%)'/>
  <g fill='rgb(89,84%, 89,84%, 89,84%)'>
  </g>
  <!-- Row 21 -->
  <rect x='2' y='422' height='20' width='10' fill='rgb(0,00%, 0,00%, 0,00%)'/>
  <g fill='rgb(89,84%, 89,84%, 89,84%)'>
  </g>
  <rect x='12' y='422' height='20' width='250' fill='rgb(0,00%, 0,00%, 0,00%)'/>
  <g fill='rgb(89,84%, 89,84%, 89,84%)'>
   <text x='12' y='437'>3</text>
   <text x='22' y='437'>9</text>
   <text x='32' y='437'>1</text>
   <text x='42' y='437'>5</text>
   <text x='52' y='437'>0</text>
   <text x='62' y='437'>4</text>
   <text x='82' y='437'>b</text>
   <text x='92' y='437'>a</text>
   <text x='102' y='437'>r</text>
   <text x='112' y='437'>i</text>
   <text x='122' y='437'>n</text>
   <text x='132' y='437'>k</text>
   <text x='142' y='437'>l</text>
   <text x='192' y='437'>2</text>
   <text x='202' y='437'>0</text>
   <text x='242' y='437'>0</text>
  </g>
  <rect x='262' y='422' height='20' width='140' fill='rgb(0,00%, 0,00%, 0,00%)'/>
  <g fill='rgb(0,00%, 80,41%, 80,41%)'>
   <text x='262' y='437'>3</text>
   <text x='272' y='437'>8</text>
   <text x='282' y='437'>3</text>
   <text x='292' y='437'>3</text>
   <text x='302' y='437'>M</text>
   <text x='332' y='437'>2</text>
   <text x='342' y='437'>0</text>
   <text x='352' y='437'>1</text>
   <text x='362' y='437'>M</text>
   <text x='382' y='437'>7</text>
   <text x='392' y='437'>1</text>
  </g>
  <rect x='402' y='422' height='20' width='160' fill='rgb(0,00%, 0,00%, 0,00%)'/>
  <g fill='rgb(89,84%, 89,84%, 89,84%)'>
   <text x='402' y='437'>3</text>
   <text x='412' y='437'>8</text>
   <text x='422' y='437'>8</text>
   <text x='442' y='437'>S</text>
   <text x='472' y='437'>2</text>
   <text x='482' y='437'>.</text>
   <text x='492' y='437'>6</text>
   <text x='522' y='437'>0</text>
   <text x='532' y='437'>.</text>
   <text x='542' y='437'>6</text>
  </g>
  <rect x='562' y='422' height='20' width='30' fill='rgb(0,00%, 0,00%, 0,00%)'/>
  <g font-weight='bold' fill='rgb(100,00%, 0,00%, 0,00%)'>
   <text x='572' y='437'>4</text>
   <text x='582' y='437'>h</text>
  </g>
  <rect x='592' y='422' height='20' width='210' fill='rgb(0,00%, 0,00%, 0,00%)'/>
  <g fill='rgb(89,84%, 89,84%, 89,84%)'>
   <text x='592' y='437'>0</text>
   <text x='602' y='437'>5</text>
   <text x='612' y='437'>:</text>
   <text x='622' y='437'>4</text>
   <text x='632' y='437'>9</text>
   <text x='652' y='437'>/</text>
   <text x='662' y='437'>u</text>
   <text x='672' y='437'>s</text>
   <text x='682' y='437'>r</text>
   <text x='692' y='437'>/</text>
   <text x='702' y='437'>s</text>
   <text x='712' y='437'>h</text>
   <text x='722' y='437'>a</text>
   <text x='732' y='437'>r</text>
   <text x='742' y='437'>e</text>
   <text x='752' y='437'>/</text>
   <text x='762' y='437'>t</text>
   <text x='772' y='437'>e</text>
   <text x='782' y='437'>a</text>
   <text x='792' y='437'>m</text>
  </g>
  <!-- Row 22 -->
  <rect x='2' y='442' height='20' width='10' fill='rgb(0,00%, 0,00%, 0,00%)'/>
  <g fill='rgb(89,84%, 89,84%, 89,84%)'>
  </g>
  <rect x='12' y='442' height='20' width='250' fill='rgb(0,00%, 0,00%, 0,00%)'/>
  <g fill='rgb(89,84%, 89,84%, 89,84%)'>
   <text x='12' y='457'>3</text>
   <text x='22' y='457'>9</text>
   <text x='32' y='457'>2</text>
   <text x='42' y='457'>5</text>
   <text x='52' y='457'>4</text>
   <text x='62' y='457'>2</text>
   <text x='82' y='457'>b</text>
   <text x='92' y='457'>a</text>
   <text x='102' y='457'>r</text>
   <text x='112' y='457'>i</text>
   <text x='122' y='457'>n</text>
   <text x='132' y='457'>k</text>
   <text x='142' y='457'>l</text>
   <text x='192' y='457'>2</text>
   <text x='202' y='457'>0</text>
   <text x='242' y='457'>0</text>
  </g>
  <rect x='262' y='442' height='20' width='140' fill='rgb(0,00%, 0,00%, 0,00%)'/>
  <g fill='rgb(0,00%, 80,41%, 80,41%)'>
   <text x='262' y='457'>2</text>
   <text x='272' y='457'>0</text>
   <text x='282' y='457'>7</text>
   <text x='292' y='457'>8</text>
   <text x='302' y='457'>M</text>
   <text x='332' y='457'>5</text>
   <text x='342' y='457'>2</text>
   <text x='352' y='457'>7</text>
   <text x='362' y='457'>M</text>
   <text x='382' y='457'>6</text>
   <text x='392' y='457'>9</text>
  </g>
  <rect x='402' y='442' height='20' width='160' fill='rgb(0,00%, 0,00%, 0,00%)'/>
  <g fill='rgb(89,84%, 89,84%, 89,84%)'>
   <text x='402' y='457'>5</text>
   <text x='412' y='457'>4</text>
   <text x='422' y='457'>4</text>
   <text x='442' y='457'>S</text>
   <text x='472' y='457'>2</text>
   <text x='482' y='457'>.</text>
   <text x='492' y='457'>6</text>
   <text x='522' y='457'>1</text>
   <text x='532' y='457'>.</text>
   <text x='542' y='457'>7</text>
  </g>
  <rect x='562' y='442' height='20' width='30' fill='rgb(0,00%, 0,00%, 0,00%)'/>
  <g font-weight='bold' fill='rgb(100,00%, 0,00%, 0,00%)'>
   <text x='572' y='457'>1</text>
   <text x='582' y='457'>h</text>
  </g>
  <rect x='592' y='442' height='20' width='60' fill='rgb(0,00%, 0,00%, 0,00%)'/>
  <g fill='rgb(89,84%, 89,84%, 89,84%)'>
   <text x='592' y='457'>3</text>
   <text x='602' y='457'>0</text>
   <text x='612' y='457'>:</text>
   <text x='622' y='457'>1</text>
   <text x='632' y='457'>6</text>
  </g>
  <rect x='652' y='442' height='20' width='150' fill='rgb(0,00%, 0,00%, 0,00%)'/>
  <g fill='rgb(0,00%, 80,41%, 0,00%)'>
   <text x='652' y='457'>/</text>
   <text x='662' y='457'>u</text>
   <text x='672' y='457'>s</text>
   <text x='682' y='457'>r</text>
   <text x='692' y='457'>/</text>
   <text x='702' y='457'>l</text>
   <text x='712' y='457'>i</text>
   <text x='722' y='457'>b</text>
   <text x='732' y='457'>/</text>
   <text x='742' y='457'>c</text>
   <text x='752' y='457'>h</text>
   <text x='762' y='457'>r</text>
   <text x='772' y='457'>o</text>
   <text x='782' y='457'>m</text>
   <text x='792' y='457'>i</text>
  </g>
  <!-- Row 23 -->
  <rect x='2' y='462' height='20' width='20' fill='rgb(0,00%, 0,00%, 0,00%)'/>
  <g fill='rgb(89,84%, 89,84%, 89,84%)'>
   <text x='2' y='477'>F</text>
   <text x='12' y='477'>1</text>
  </g>
  <rect x='22' y='462' height='20' width='60' fill='rgb(0,00%, 80,41%, 80,41%)'/>
  <g fill='rgb(0,00%, 0,00%, 0,00%)'>
   <text x='22' y='477'>H</text>
   <text x='32' y='477'>e</text>
   <text x='42' y='477'>l</text>
   <text x='52' y='477'>p</text>
  </g>
  <rect x='82' y='462' height='20' width='20' fill='rgb(0,00%, 0,00%, 0,00%)'/>
  <g fill='rgb(89,84%, 89,84%, 89,84%)'>
   <text x='82' y='477'>F</text>
   <text x='92' y='477'>2</text>
  </g>
  <rect x='102' y='462' height='20' width='60' fill='rgb(0,00%, 80,41%, 80,41%)'/>
  <g fill='rgb(0,00%, 0,00%, 0,00%)'>
   <text x='102' y='477'>S</text>
   <text x='112' y='477'>e</text>
   <text x='122' y='477'>t</text>
   <text x='132' y='477'>u</text>
   <text x='142' y='477'>p</text>
  </g>
  <rect x='162' y='462' height='20' width='20' fill='rgb(0,00%, 0,00%, 0,00%)'/>
  <g fill='rgb(89,84%, 89,84%, 89,84%)'>
   <text x='162' y='477'>F</text>
   <text x='172' y='477'>3</text>
  </g>
  <rect x='182' y='462' height='20' width='60' fill='rgb(0,00%, 80,41%, 80,41%)'/>
  <g fill='rgb(0,00%, 0,00%, 0,00%)'>
   <text x='182' y='477'>S</text>
   <text x='192' y='477'>e</text>
   <text x='202' y='477'>a</text>
   <text x='212' y='477'>r</text>
   <text x='222' y='477'>c</text>
   <text x='232' y='477'>h</text>
  </g>
  <rect x='242' y='462' height='20' width='20' fill='rgb(0,00%, 0,00%, 0,00%)'/>
  <g fill='rgb(89,84%, 89,84%, 89,84%)'>
   <text x='242' y='477'>F</text>
   <text x='252' y='477'>4</text>
  </g>
  <rect x='262' y='462' height='20' width='60' fill='rgb(0,00%, 80,41%, 80,41%)'/>
  <g fill='rgb(0,00%, 0,00%, 0,00%)'>
   <text x='262' y='477'>F</text>
   <text x='272' y='477'>i</text>
   <text x='282' y='477'>l</text>
   <text x='292' y='477'>t</text>
   <text x='302' y='477'>e</text>
   <text x='312' y='477'>r</text>
  </g>
  <rect x='322' y='462' height='20' width='20' fill='rgb(0,00%, 0,00%, 0,00%)'/>
  <g fill='rgb(89,84%, 89,84%, 89,84%)'>
   <text x='322' y='477'>F</text>
   <text x='332' y='477'>5</text>
  </g>
  <rect x='342' y='462' height='20' width='60' fill='rgb(0,00%, 80,41%, 80,41%)'/>
  <g fill='rgb(0,00%, 0,00%, 0,00%)'>
   <text x='342' y='477'>T</text>
   <text x='352' y='477'>r</text>
   <text x='362' y='477'>e</text>
   <text x='372' y='477'>e</text>
  </g>
  <rect x='402' y='462' height='20' width='20' fill='rgb(0,00%, 0,00%, 0,00%)'/>
  <g fill='rgb(89,84%, 89,84%, 89,84%)'>
   <text x='402' y='477'>F</text>
   <text x='412' y='477'>6</text>
  </g>
  <rect x='422' y='462' height='20' width='60' fill='rgb(0,00%, 80,41%, 80,41%)'/>
  <g fill='rgb(0,00%, 0,00%, 0,00%)'>
   <text x='422' y='477'>S</text>
   <text x='432' y='477'>o</text>
   <text x='442' y='477'>r</text>
   <text x='452' y='477'>t</text>
   <text x='462' y='477'>B</text>
   <text x='472' y='477'>y</text>
  </g>
  <rect x='482' y='462' height='20' width='20' fill='rgb(0,00%, 0,00%, 0,00%)'/>
  <g fill='rgb(89,84%, 89,84%, 89,84%)'>
   <text x='482' y='477'>F</text>
   <text x='492' y='477'>7</text>
  </g>
  <rect x='502' y='462' height='20' width='60' fill='rgb(0,00%, 80,41%, 80,41%)'/>
  <g fill='rgb(0,00%, 0,00%, 0,00%)'>
   <text x='502' y='477'>N</text>
   <text x='512' y='477'>i</text>
   <text x='522' y='477'>c</text>
   <text x='532' y='477'>e</text>
   <text x='552' y='477'>-</text>
  </g>
  <rect x='562' y='462' height='20' width='20' fill='rgb(0,00%, 0,00%, 0,00%)'/>
  <g fill='rgb(89,84%, 89,84%, 89,84%)'>
   <text x='562' y='477'>F</text>
   <text x='572' y='477'>8</text>
  </g>
  <rect x='582' y='462' height='20' width='60' fill='rgb(0,00%, 80,41%, 80,41%)'/>
  <g fill='rgb(0,00%, 0,00%, 0,00%)'>
   <text x='582' y='477'>N</text>
   <text x='592' y='477'>i</text>
   <text x='602' y='477'>c</text>
   <text x='612' y='477'>e</text>
   <text x='632' y='477'>+</text>
  </g>
  <rect x='642' y='462' height='20' width='20' fill='rgb(0,00%, 0,00%, 0,00%)'/>
  <g fill='rgb(89,84%, 89,84%, 89,84%)'>
   <text x='642' y='477'>F</text>
   <text x='652' y='477'>9</text>
  </g>
  <rect x='662' y='462' height='20' width='60' fill='rgb(0,00%, 80,41%, 80,41%)'/>
  <g fill='rgb(0,00%, 0,00%, 0,00%)'>
   <text x='662' y='477'>K</text>
   <text x='672' y='477'>i</text>
   <text x='682' y='477'>l</text>
   <text x='692' y='477'>l</text>
  </g>
  <rect x='722' y='462' height='20' width='30' fill='rgb(0,00%, 0,00%, 0,00%)'/>
  <g fill='rgb(89,84%, 89,84%, 89,84%)'>
   <text x='722' y='477'>F</text>
   <text x='732' y='477'>1</text>
   <text x='742' y='477'>0</text>
  </g>
  <rect x='752' y='462' height='20' width='40' fill='rgb(0,00%, 80,41%, 80,41%)'/>
  <g fill='rgb(0,00%, 0,00%, 0,00%)'>
   <text x='752' y='477'>Q</text>
   <text x='762' y='477'>u</text>
   <text x='772' y='477'>i</text>
   <text x='782' y='477'>t</text>
  </g>
  <rect x='792' y='462' height='20' width='10' fill='rgb(0,00%, 80,41%, 80,41%)'/>
  <g fill='rgb(0,00%, 0,00%, 0,00%)'>
  </g>
 </g>
</svg>
